simulation/qsim/Processador.msim.vcd
$comment
	File created using the following command:
		vcd file Processador.msim.vcd -direction
$end
$date
	Thu Jul 19 19:11:49 2018
$end
$version
	ModelSim Version 10.5b
$end
$timescale
	1ps
$end

$scope module proc_vlg_vec_tst $end
$var reg 1 ! Clock $end
$var reg 9 " DIN [8:0] $end
$var reg 1 # Resetn $end
$var reg 1 $ Run $end
$var wire 1 % BusWires [8] $end
$var wire 1 & BusWires [7] $end
$var wire 1 ' BusWires [6] $end
$var wire 1 ( BusWires [5] $end
$var wire 1 ) BusWires [4] $end
$var wire 1 * BusWires [3] $end
$var wire 1 + BusWires [2] $end
$var wire 1 , BusWires [1] $end
$var wire 1 - BusWires [0] $end
$var wire 1 . Done $end

$scope module i1 $end
$var wire 1 / gnd $end
$var wire 1 0 vcc $end
$var wire 1 1 unknown $end
$var tri1 1 2 devclrn $end
$var tri1 1 3 devpor $end
$var tri1 1 4 devoe $end
$var wire 1 5 DIN[0]~input_o $end
$var wire 1 6 DIN[1]~input_o $end
$var wire 1 7 DIN[2]~input_o $end
$var wire 1 8 DIN[3]~input_o $end
$var wire 1 9 DIN[4]~input_o $end
$var wire 1 : DIN[5]~input_o $end
$var wire 1 ; DIN[6]~input_o $end
$var wire 1 < DIN[7]~input_o $end
$var wire 1 = DIN[8]~input_o $end
$var wire 1 > ~QUARTUS_CREATED_GND~I_combout $end
$var wire 1 ? Clock~input_o $end
$var wire 1 @ Clock~inputCLKENA0_outclk $end
$var wire 1 A Run~input_o $end
$var wire 1 B Tstep_Q.T0~feeder_combout $end
$var wire 1 C Resetn~input_o $end
$var wire 1 D Tstep_Q.T0~q $end
$var wire 1 E Tstep_Q~11_combout $end
$var wire 1 F Tstep_Q.T1~q $end
$var wire 1 G Selector1~0_combout $end
$var wire 1 H Done~reg0_q $end
$upscope $end
$upscope $end
$enddefinitions $end
#0
$dumpvars
0!
b0 "
0#
0$
0-
0,
0+
0*
0)
0(
0'
0&
0%
1.
0/
10
x1
12
13
14
05
06
07
08
09
0:
0;
0<
0=
0>
0?
0@
0A
0B
0C
0D
0E
0F
0G
0H
$end
#10000
1!
1?
1@
#20000
1#
1$
b1000000 "
0!
1C
1A
1;
0?
0@
1G
1E
1B
#30000
1!
1?
1@
1H
1F
1D
0.
0E
0G
0B
#40000
b1000100 "
b1000101 "
0$
b101 "
0!
15
17
0;
0A
0?
0@
#50000
1!
1?
1@
0H
0F
0D
1.
#60000
b1101 "
b1001 "
b1000 "
1$
0!
05
07
18
1A
0?
0@
1G
1E
1B
#70000
1!
1?
1@
1H
1F
1D
0.
0E
0G
0B
#80000
0$
0!
0A
0?
0@
#90000
1!
1?
1@
0H
0F
0D
1.
#100000
b10001000 "
b10000000 "
b10000001 "
1$
0!
15
08
1<
1A
0?
0@
1G
1E
1B
#110000
1!
1?
1@
1H
1F
1D
0.
0E
0G
0B
#120000
0$
0!
0A
0?
0@
#130000
1!
1?
1@
0H
0F
0D
1.
#140000
0!
0?
0@
#150000
1!
1?
1@
#160000
0!
0?
0@
#170000
1!
1?
1@
#180000
b11000001 "
b11000000 "
1$
0!
05
1;
1A
0?
0@
1G
1E
1B
#190000
1!
1?
1@
1H
1F
1D
0.
0E
0G
0B
#200000
b1000000 "
b0 "
0$
0!
0;
0<
0A
0?
0@
#210000
1!
1?
1@
0H
0F
0D
1.
#220000
0!
0?
0@
#230000
1!
1?
1@
#240000
0!
0?
0@
#250000
1!
1?
1@
#260000
0!
0?
0@
#270000
1!
1?
1@
#280000
0!
0?
0@
#290000
1!
1?
1@
#300000
0!
0?
0@
#310000
1!
1?
1@
#320000
0!
0?
0@
#330000
1!
1?
1@
#340000
0!
0?
0@
#350000
1!
1?
1@
#360000
0!
0?
0@
#370000
1!
1?
1@
#380000
0!
0?
0@
#390000
1!
1?
1@
#400000
0!
0?
0@
#410000
1!
1?
1@
#420000
0!
0?
0@
#430000
1!
1?
1@
#440000
0!
0?
0@
#450000
1!
1?
1@
#460000
0!
0?
0@
#470000
1!
1?
1@
#480000
0!
0?
0@
#490000
1!
1?
1@
#500000
0!
0?
0@
#510000
1!
1?
1@
#520000
0!
0?
0@
#530000
1!
1?
1@
#540000
0!
0?
0@
#550000
1!
1?
1@
#560000
0!
0?
0@
#570000
1!
1?
1@
#580000
0!
0?
0@
#590000
1!
1?
1@
#600000
0!
0?
0@
#610000
1!
1?
1@
#620000
0!
0?
0@
#630000
1!
1?
1@
#640000
0!
0?
0@
#650000
1!
1?
1@
#660000
0!
0?
0@
#670000
1!
1?
1@
#680000
0!
0?
0@
#690000
1!
1?
1@
#700000
0!
0?
0@
#710000
1!
1?
1@
#720000
0!
0?
0@
#730000
1!
1?
1@
#740000
0!
0?
0@
#750000
1!
1?
1@
#760000
0!
0?
0@
#770000
1!
1?
1@
#780000
0!
0?
0@
#790000
1!
1?
1@
#800000
0!
0?
0@
#810000
1!
1?
1@
#820000
0!
0?
0@
#830000
1!
1?
1@
#840000
0!
0?
0@
#850000
1!
1?
1@
#860000
0!
0?
0@
#870000
1!
1?
1@
#880000
0!
0?
0@
#890000
1!
1?
1@
#900000
0!
0?
0@
#910000
1!
1?
1@
#920000
0!
0?
0@
#930000
1!
1?
1@
#940000
0!
0?
0@
#950000
1!
1?
1@
#960000
0!
0?
0@
#970000
1!
1?
1@
#980000
0!
0?
0@
#990000
1!
1?
1@
